<svg id="Group_9738" data-name="Group 9738" xmlns="http://www.w3.org/2000/svg" xmlns:xlink="http://www.w3.org/1999/xlink" width="249" height="155.491" viewBox="0 0 249 155.491">
  <defs>
    <clipPath id="clip-path">
      <rect id="Rectangle_189" data-name="Rectangle 189" width="249" height="155.491" fill="none"/>
    </clipPath>
  </defs>
  <g id="Group_9737" data-name="Group 9737" clip-path="url(#clip-path)">
    <path id="Path_2954" data-name="Path 2954" d="M96.231,38.336a21.244,21.244,0,0,0,11.6-3.808,13.34,13.34,0,0,0,6.045-11.278c.024-5.113-.016-6.217,0-11.331.012-3.777,1.517-6.283,4.755-7.6a12.566,12.566,0,0,0-6.89-3.9c-6.581-1.37-15.477.321-15.506,9.758Z" transform="translate(-11.319 0)" fill="#fff"/>
    <path id="Path_2955" data-name="Path 2955" d="M96.276,44.262a20.842,20.842,0,0,1,11.473,3.808A13.25,13.25,0,0,1,113.7,59.348c.024,5.113.08,6.217.1,11.331.012,3.777,1.516,6.283,4.755,7.6a12.569,12.569,0,0,1-6.89,3.9c-6.581,1.37-13.72-1.409-15.2-9.758a28.41,28.41,0,0,1-.3-4.866c-.025-8.326-.009-12.644,0-20.97,0-.724.072-1.447.119-2.325" transform="translate(-11.309 -5.206)" fill="#fff"/>
    <path id="Path_2956" data-name="Path 2956" d="M136.027,82.515a21.233,21.233,0,0,1-11.592-3.808,13.252,13.252,0,0,1-5.949-11.278c-.024-5.113-.08-6.217-.1-11.331-.011-3.777-1.516-6.283-4.754-7.6a12.566,12.566,0,0,1,6.89-3.9c6.581-1.37,13.719,1.409,15.2,9.758a28.5,28.5,0,0,1,.3,4.866c.025,8.326.008,12.644,0,20.97,0,.724.047,1.447,0,2.325" transform="translate(-13.367 -5.207)" fill="#fff"/>
    <path id="Path_2957" data-name="Path 2957" d="M159.069,82.515a21.233,21.233,0,0,1-11.592-3.808,13.252,13.252,0,0,1-5.949-11.278c-.024-5.113-.08-6.217-.1-11.331-.011-3.777-1.516-6.283-4.754-7.6a12.566,12.566,0,0,1,6.89-3.9c6.581-1.37,13.719,1.409,15.2,9.758a28.5,28.5,0,0,1,.3,4.866c.025,8.326.008,12.644,0,20.97,0,.724.047,1.447,0,2.325" transform="translate(-16.077 -5.207)" fill="#fff"/>
    <path id="Path_2958" data-name="Path 2958" d="M183.045,82.515a21.233,21.233,0,0,1-11.592-3.808A13.252,13.252,0,0,1,165.5,67.429c-.024-5.113-.08-6.217-.1-11.331-.011-3.777-1.516-6.283-4.754-7.6a12.566,12.566,0,0,1,6.89-3.9c6.581-1.37,13.719,1.409,15.2,9.758a28.5,28.5,0,0,1,.3,4.866c.025,8.326.008,12.644,0,20.97,0,.724.047,1.447,0,2.325" transform="translate(-18.897 -5.207)" fill="#fff"/>
    <path id="Path_2959" data-name="Path 2959" d="M135.82,89.061a21.244,21.244,0,0,0-11.6,3.808,13.34,13.34,0,0,0-6.045,11.278c-.024,5.113.016,6.217,0,11.331-.012,3.777-1.517,6.283-4.755,7.6a12.566,12.566,0,0,0,6.89,3.9c6.581,1.37,15.477-.321,15.506-9.758Z" transform="translate(-13.342 -10.476)" fill="#fff"/>
    <path id="Path_2960" data-name="Path 2960" d="M0,159.2H1.506v4.609h5.75V159.2H8.764v11.1H7.257v-5.078H1.506V170.3H0Z" transform="translate(0 -18.727)" fill="#fff"/>
    <path id="Path_2961" data-name="Path 2961" d="M26.229,165.567l-4.2-6.363h1.927l3.023,4.872L30.1,159.2h1.836l-4.2,6.363V170.3h-1.5Z" transform="translate(-2.591 -18.727)" fill="#fff"/>
    <path id="Path_2962" data-name="Path 2962" d="M45.226,159.2h2.239l3.527,8.4h.064l3.493-8.4h2.242v11.1h-1.5v-9.12h-.034L51.51,170.3h-1l-3.745-9.12h-.034v9.12h-1.5Z" transform="translate(-5.32 -18.727)" fill="#fff"/>
    <rect id="Rectangle_187" data-name="Rectangle 187" width="0.755" height="15.671" transform="translate(63.555 139.82)" fill="#fff"/>
    <path id="Path_2963" data-name="Path 2963" d="M86.808,159.2H90a6.173,6.173,0,0,1,1.217.131,3.6,3.6,0,0,1,1.157.462,2.617,2.617,0,0,1,.865.9,2.791,2.791,0,0,1,.338,1.435,2.9,2.9,0,0,1-.274,1.3,2.528,2.528,0,0,1-.74.9,3.074,3.074,0,0,1-1.062.526,4.517,4.517,0,0,1-1.263.173h-2.4V170.3H86.808Zm1.033,4.891h2.352a3.677,3.677,0,0,0,.864-.1,2.3,2.3,0,0,0,.751-.331,1.7,1.7,0,0,0,.534-.6,1.932,1.932,0,0,0,.2-.924,1.852,1.852,0,0,0-.211-.909,1.889,1.889,0,0,0-.548-.62,2.3,2.3,0,0,0-.777-.353,3.691,3.691,0,0,0-.875-.109H87.841Z" transform="translate(-10.211 -18.727)" fill="#fff"/>
    <path id="Path_2964" data-name="Path 2964" d="M107.659,159.2h2.919c.146,0,.341,0,.593.015a6.146,6.146,0,0,1,.815.094,4.888,4.888,0,0,1,.894.251,2.5,2.5,0,0,1,.815.5,2.653,2.653,0,0,1,.6.83,2.927,2.927,0,0,1,.233,1.225,2.763,2.763,0,0,1-.274,1.315,2.562,2.562,0,0,1-.691.841,2.878,2.878,0,0,1-.917.477,5.78,5.78,0,0,1-.954.218l3.227,5.33H113.74l-3.117-5.267H108.7V170.3h-1.037Zm1.037,4.891h2.194a3.572,3.572,0,0,0,1.326-.206,2.183,2.183,0,0,0,.789-.5,1.651,1.651,0,0,0,.386-.642,1.99,1.99,0,0,0,0-1.255,1.645,1.645,0,0,0-.386-.642,2.223,2.223,0,0,0-.789-.5,3.634,3.634,0,0,0-1.326-.2H108.7Z" transform="translate(-12.664 -18.727)" fill="#fff"/>
    <path id="Path_2965" data-name="Path 2965" d="M128.036,164.714a6.3,6.3,0,0,1,.422-2.337,5.592,5.592,0,0,1,1.175-1.841,5.3,5.3,0,0,1,1.81-1.213,6.385,6.385,0,0,1,4.655,0,5.26,5.26,0,0,1,1.811,1.213,5.564,5.564,0,0,1,1.175,1.841,6.3,6.3,0,0,1,.424,2.337,6.36,6.36,0,0,1-.424,2.344,5.554,5.554,0,0,1-1.175,1.849,5.18,5.18,0,0,1-1.811,1.205,6.482,6.482,0,0,1-4.655,0,5.217,5.217,0,0,1-1.81-1.205,5.582,5.582,0,0,1-1.175-1.849,6.36,6.36,0,0,1-.422-2.344m1.034,0a5.445,5.445,0,0,0,.331,1.927,4.492,4.492,0,0,0,.938,1.551,4.357,4.357,0,0,0,1.481,1.037,5.251,5.251,0,0,0,3.9,0,4.363,4.363,0,0,0,1.484-1.037,4.619,4.619,0,0,0,.939-1.551,5.777,5.777,0,0,0,0-3.854,4.584,4.584,0,0,0-.939-1.551,4.363,4.363,0,0,0-1.484-1.037,5.251,5.251,0,0,0-3.9,0,4.357,4.357,0,0,0-1.481,1.037,4.46,4.46,0,0,0-.938,1.551,5.432,5.432,0,0,0-.331,1.927" transform="translate(-15.061 -18.689)" fill="#fff"/>
    <path id="Path_2966" data-name="Path 2966" d="M154.323,159.2h3.2a6.173,6.173,0,0,1,1.217.131,3.6,3.6,0,0,1,1.157.462,2.617,2.617,0,0,1,.865.9,2.791,2.791,0,0,1,.338,1.435,2.9,2.9,0,0,1-.274,1.3,2.527,2.527,0,0,1-.74.9,3.074,3.074,0,0,1-1.062.526,4.517,4.517,0,0,1-1.263.173h-2.4V170.3h-1.033Zm1.033,4.891h2.352a3.677,3.677,0,0,0,.864-.1,2.3,2.3,0,0,0,.751-.331,1.7,1.7,0,0,0,.534-.6,1.932,1.932,0,0,0,.2-.924,1.853,1.853,0,0,0-.211-.909,1.889,1.889,0,0,0-.548-.62,2.3,2.3,0,0,0-.777-.353,3.69,3.69,0,0,0-.875-.109h-2.292Z" transform="translate(-18.153 -18.727)" fill="#fff"/>
    <path id="Path_2967" data-name="Path 2967" d="M175.174,159.2h6.787v.939h-5.75v3.952h5.39v.939h-5.39v4.327h6v.939h-7.04Z" transform="translate(-20.605 -18.727)" fill="#fff"/>
    <path id="Path_2968" data-name="Path 2968" d="M196.365,159.2h2.919c.146,0,.341,0,.593.015a6.146,6.146,0,0,1,.815.094,4.888,4.888,0,0,1,.894.251,2.5,2.5,0,0,1,.815.5,2.653,2.653,0,0,1,.6.83,2.927,2.927,0,0,1,.233,1.225,2.762,2.762,0,0,1-.274,1.315,2.562,2.562,0,0,1-.691.841,2.878,2.878,0,0,1-.917.477,5.78,5.78,0,0,1-.954.218l3.227,5.33h-1.176l-3.117-5.267H197.4V170.3h-1.037Zm1.037,4.891H199.6a3.572,3.572,0,0,0,1.326-.206,2.183,2.183,0,0,0,.789-.5,1.651,1.651,0,0,0,.386-.642,1.99,1.99,0,0,0,0-1.255,1.645,1.645,0,0,0-.386-.642,2.223,2.223,0,0,0-.789-.5,3.634,3.634,0,0,0-1.326-.2H197.4Z" transform="translate(-23.098 -18.727)" fill="#fff"/>
    <path id="Path_2969" data-name="Path 2969" d="M219.946,160.143h-3.794V159.2h8.621v.939h-3.793V170.3h-1.033Z" transform="translate(-25.426 -18.727)" fill="#fff"/>
    <rect id="Rectangle_188" data-name="Rectangle 188" width="1.033" height="11.096" transform="translate(210.462 140.477)" fill="#fff"/>
    <path id="Path_2970" data-name="Path 2970" d="M253.792,159.2h6.787v.939h-5.75v3.952h5.39v.939h-5.39v4.327h6v.939h-7.04Z" transform="translate(-29.853 -18.727)" fill="#fff"/>
    <path id="Path_2971" data-name="Path 2971" d="M275.187,168.207a2.648,2.648,0,0,0,1.059,1.052,3.118,3.118,0,0,0,1.481.346,2.956,2.956,0,0,0,.972-.158,2.483,2.483,0,0,0,.792-.439,2.1,2.1,0,0,0,.534-.68,2.058,2.058,0,0,0,.2-.9,1.743,1.743,0,0,0-.244-.958,1.973,1.973,0,0,0-.65-.619,4.778,4.778,0,0,0-.917-.414c-.341-.116-.691-.229-1.051-.345s-.71-.244-1.048-.391a3.437,3.437,0,0,1-.917-.574,2.512,2.512,0,0,1-.654-.883,3.192,3.192,0,0,1-.24-1.318,2.8,2.8,0,0,1,.289-1.307,2.75,2.75,0,0,1,.784-.958,3.5,3.5,0,0,1,1.135-.578,4.572,4.572,0,0,1,1.348-.2,4.337,4.337,0,0,1,1.683.319,3.207,3.207,0,0,1,1.341,1.075l-.894.641a2.464,2.464,0,0,0-2.16-1.1,3.338,3.338,0,0,0-.957.136,2.355,2.355,0,0,0-.793.39,1.915,1.915,0,0,0-.541.65,2,2,0,0,0-.2.924,1.779,1.779,0,0,0,.424,1.277,2.957,2.957,0,0,0,1.055.707,11.227,11.227,0,0,0,1.382.454,6.648,6.648,0,0,1,1.379.526,2.976,2.976,0,0,1,1.055.917,2.7,2.7,0,0,1,.424,1.623,2.911,2.911,0,0,1-1.04,2.31,3.269,3.269,0,0,1-1.108.6,4.189,4.189,0,0,1-1.3.2,5.227,5.227,0,0,1-2.021-.383,3.717,3.717,0,0,1-1.586-1.293Z" transform="translate(-32.254 -18.689)" fill="#fff"/>
  </g>
</svg>
